date_time,dataset,target_name,finetune_lr,pretraining_epochs,pretrain_lr,training_epochs,batch_size,n_ins,n_outs,hidden_layers_sizes,corruption_levels (%),valid_error (%),test_error (%),run_time (min)
2014-04-25 01-43,energy,cat,0.05,60,0.001,500,50,11,19,"[50, 50, 50]","[0.1, 0.2, 0.3]",18.949122807017471,19.029824561403451,21.707032219568887
2014-04-25 02-18,energy,cat,0.05,0,0.001,500,50,11,19,"[50, 50, 50]","[0.1, 0.2, 0.3]",20.168421052631512,20.198245614035045,6.245284883181254
2014-04-25 14-52,energy,cat,0.005,300,5e-05,1000,50,11,19,"[50, 50, 50]","[0.1, 0.2, 0.3]",32.505263157894632,32.940350877192884,71.3602110505104
2014-04-25 16-05,energy,cat,0.05,30,0.001,500,50,11,19,"[50, 50, 50]","[0.1, 0.2, 0.3]",19.443859649122739,19.498245614035071,13.2437899629275
2014-04-25 16-18,energy,cat,0.05,0,0.001,500,50,11,19,"[50, 50, 50]","[0.1, 0.2, 0.3]",20.168421052631512,20.198245614035045,5.27709846496582
2014-04-25 16-03,energy,cat,0.005,300,5e-05,1000,200,11,19,"[50, 5, 50]","[0.1, 0.2, 0.3]",46.28947368421052,46.280701754385937,40.09757516781489
2014-05-04 13-00,energy,cat,0.1,30,0.001,500,50,11,19,"[20, 20]","[0.1, 0.2]",20.645614035087657,20.575438596491193,4.831604401270549
2014-05-04 13-05,energy,cat,0.1,0,0.001,500,50,11,19,"[20, 20]","[0.1, 0.2]",20.191228070175391,20.273684210526298,3.56816543340683
2014-05-04 13-09,energy,cat,0.1,30,0.001,500,50,11,19,"[20, 20, 20]","[0.1, 0.2, 0.3]",19.763157894736786,19.773684210526284,7.126570264498393
2014-05-04 13-16,energy,cat,0.1,0,0.001,500,50,11,19,"[20, 20, 20]","[0.1, 0.2, 0.3]",20.45438596491222,20.371929824561349,3.065163564682007
2014-05-04 13-40,energy,cat,0.1,30,0.001,500,50,11,19,[15],[0.1],22.887719298245596,22.864912280701727,3.68827265103658
2014-05-04 13-44,energy,cat,0.1,0,0.001,500,50,11,19,[15],[0.1],24.222807017543861,24.373684210526307,1.6591447830200194
